^D:\GIT\GIT VISUAL\CONSOLEAPPLICATION15 HW\CONSOLEAPPLICATION15 HW\DEBUG\CONSOLEAPPLICATION15 HW.OBJ
D:\GIT\GIT VISUAL\CONSOLEAPPLICATION15 HW\DEBUG\CONSOLEAPPLICATION15 HW.EXE
D:\GIT\GIT VISUAL\CONSOLEAPPLICATION15 HW\DEBUG\CONSOLEAPPLICATION15 HW.ILK
D:\GIT\GIT VISUAL\CONSOLEAPPLICATION15 HW\DEBUG\CONSOLEAPPLICATION15 HW.PDB
